{
	"info": {
		"_postman_id": "5826c2a0-8d5f-4f9a-bb7b-a9067c10a09b",
		"name": "Call current weather data",
		"schema": "https://schema.getpostman.com/json/collection/v2.1.0/collection.json",
		"_exporter_id": "23774797"
	},
	"item": [
		{
			"name": "test_minimal_temperature",
			"event": [
				{
					"listen": "test",
					"script": {
						"exec": [
							"pm.test(\"Check_temperature_equal: 279.65\", function () {",
							"    var jsonData = pm.response.json();",
							"    pm.expect(jsonData.main.temp).to.eql(279.65);",
							"});",
							"",
							"pm.test(\"Check_minimal_temperature: 278.68\", function () {",
							"    var jsonData = pm.response.json();",
							"    pm.expect(jsonData.main.temp_min).to.eql(278.68);",
							"});",
							"",
							"pm.test(\"Check_maximal_temperature_equal: 281.36\", function () {",
							"    var jsonData = pm.response.json();",
							"    pm.expect(jsonData.main.temp_max).to.eql(281.36);",
							"});"
						],
						"type": "text/javascript"
					}
				}
			],
			"protocolProfileBehavior": {
				"disableBodyPruning": true
			},
			"request": {
				"method": "GET",
				"header": [],
				"body": {
					"mode": "formdata",
					"formdata": []
				},
				"url": {
					"raw": "https://api.openweathermap.org/data/2.5/weather?lat=50.616669&lon=11.06667&appid=f9205410fe1428953bc2cc754b980a58",
					"protocol": "https",
					"host": [
						"api",
						"openweathermap",
						"org"
					],
					"path": [
						"data",
						"2.5",
						"weather"
					],
					"query": [
						{
							"key": "lat",
							"value": "50.616669"
						},
						{
							"key": "lon",
							"value": "11.06667"
						},
						{
							"key": "appid",
							"value": "f9205410fe1428953bc2cc754b980a58"
						}
					]
				}
			},
			"response": []
		},
		{
			"name": "test_string_includes_body",
			"event": [
				{
					"listen": "test",
					"script": {
						"exec": [
							"pm.test(\"check_body_contains_string: coord\", function () {",
							"    pm.expect(pm.response.text()).to.include(\"coord\");",
							"});",
							"",
							"pm.test(\"check_body_contains_string: weather\", function () {",
							"    pm.expect(pm.response.text()).to.include(\"weather\");",
							"});",
							"",
							"pm.test(\"check_body_contains_string: base\", function () {",
							"    pm.expect(pm.response.text()).to.include(\"base\");",
							"});",
							""
						],
						"type": "text/javascript"
					}
				}
			],
			"protocolProfileBehavior": {
				"disableBodyPruning": true
			},
			"request": {
				"method": "GET",
				"header": [],
				"body": {
					"mode": "formdata",
					"formdata": []
				},
				"url": {
					"raw": "https://api.openweathermap.org/data/2.5/weather?lat=50.616669&lon=11.06667&appid=f9205410fe1428953bc2cc754b980a58",
					"protocol": "https",
					"host": [
						"api",
						"openweathermap",
						"org"
					],
					"path": [
						"data",
						"2.5",
						"weather"
					],
					"query": [
						{
							"key": "lat",
							"value": "50.616669"
						},
						{
							"key": "lon",
							"value": "11.06667"
						},
						{
							"key": "appid",
							"value": "f9205410fe1428953bc2cc754b980a58"
						}
					]
				}
			},
			"response": []
		}
	]
}