{
	"info": {
		"_postman_id": "ec9e1129-a2ad-4ed0-b112-43c522c313dc",
		"name": "Library Colection",
		"schema": "https://schema.getpostman.com/json/collection/v2.1.0/collection.json",
		"_exporter_id": "23774797"
	},
	"item": [
		{
			"name": "post",
			"request": {
				"method": "POST",
				"header": [],
				"body": {
					"mode": "raw",
					"raw": "{\n\"name\":\"Learn Appium Automation with Python\",\n\"isbn\":\"bcd\",\n\"aisle\":\"228\",\n\"author\":\"John foe\"\n}",
					"options": {
						"raw": {
							"language": "json"
						}
					}
				},
				"url": {
					"raw": "http://216.10.245.166/Library/Addbook.php",
					"protocol": "http",
					"host": [
						"216",
						"10",
						"245",
						"166"
					],
					"path": [
						"Library",
						"Addbook.php"
					]
				}
			},
			"response": []
		},
		{
			"name": "get_by_author_name",
			"protocolProfileBehavior": {
				"disableBodyPruning": true
			},
			"request": {
				"method": "GET",
				"header": [],
				"body": {
					"mode": "raw",
					"raw": "{\nName : “bookname”   ( String)\nIsbn :  “A2fdsf”   (String)\nAisle : 32 (Integer) \n}\n",
					"options": {
						"raw": {
							"language": "json"
						}
					}
				},
				"url": {
					"raw": "http://216.10.245.166/Library/GetBook.php?AuthorName=John foe",
					"protocol": "http",
					"host": [
						"216",
						"10",
						"245",
						"166"
					],
					"path": [
						"Library",
						"GetBook.php"
					],
					"query": [
						{
							"key": "AuthorName",
							"value": "John foe"
						}
					]
				}
			},
			"response": []
		}
	]
}